Get started with rmangal • rmangal
…
Network manipulation and visualization with tidygraph and ggraph

The package tidygraph treats networks as two tidy tables (one for the edges and one for the nodes) that can be modified using the grammar of data manipulation developed in the tidyverse. Moreover, tidygraph wraps over most of the igraph functions so that the user can call a vast variety of algorithms to properly analysis networks. Fortunately, objects of class mgNetwork can readily be converted into tbl_graph objects which allows the user to benefit from all the tools included in tidygraph:

library(tidygraph)
# NB the line below would not work with a mgNetworksCollection (use lapply)
tg_lagoons <-  as_tbl_graph(mg_lagoons[[1]]) %>% 
  mutate(centrality_dg = centrality_degree(mode = 'in'))
tg_lagoons %E>% as_tibble
#> # A tibble: 189 x 19
#>     from    to    id date  direction type  method attr_id value public
#>    <int> <int> <int> <chr> <chr>     <chr> <chr>    <int> <dbl> <lgl> 
#>  1     1     4 48273 2003… directed  pred… null        12 0.005 TRUE  
#>  2     1     8 48276 2003… directed  pred… null        12 0.01  TRUE  
#>  3     1     9 48277 2003… directed  pred… null        12 0.019 TRUE  
#>  4     1    10 48278 2003… directed  pred… null        12 0.07  TRUE  
#>  5     1    11 48279 2003… directed  pred… null        12 0.11  TRUE  
#>  6     1    14 48281 2003… directed  pred… null        12 0.003 TRUE  
#>  7     1    15 48282 2003… directed  pred… null        12 0.06  TRUE  
#>  8     1    16 48283 2003… directed  pred… null        12 0.033 TRUE  
#>  9     1    21 48286 2003… directed  pred… null        12 0.041 TRUE  
#> 10     1    22 48287 2003… directed  pred… null        12 0.005 TRUE  
#> # … with 179 more rows, and 9 more variables: network_id <int>,
#> #   created_at <chr>, updated_at <chr>, attribute.id <int>,
#> #   attribute.name <chr>, attribute.description <chr>,
#> #   attribute.unit <chr>, attribute.created_at <chr>,
#> #   attribute.updated_at <chr>
tg_lagoons %N>% as_tibble %>% 
  select(original_name, taxonomy.tsn, centrality_dg)
#> # A tibble: 26 x 3
#>    original_name  taxonomy.tsn centrality_dg
#>    <chr>                 <int>         <dbl>
#>  1 Scianids             169237             1
#>  2 Elopids               28630             0
#>  3 Lutjanids            168845             1
#>  4 Carangids            168584             2
#>  5 Centropomids         167642             2
#>  6 Ariids                43998             1
#>  7 Haemulids            169055             4
#>  8 Pleuronectoids       172859             3
#>  9 Callinectes           13951             6
#> 10 Belonoids            165546             4
#> # … with 16 more rows
…
