Retrieve mangal networks collection — get_collection • rmangal
…
#> $network$created_at
#> [1] "2019-02-26T19:28:10.743Z"
#> 
#> $network$updated_at
#> [1] "2019-02-26T21:02:24.719Z"
#> 
#> $network$dataset_id
#> [1] 72
#> 
#> $network$user_id
#> [1] 2
#> 
#> 
#> $nodes
#> # A tibble: 49 x 16
#>       id original_name node_level network_id taxonomy_id created_at updated_at
#>    <int> <chr>         <chr>           <int>       <int> <chr>      <chr>     
#>  1 12282 Spermophilus… taxon            1036        3667 2019-02-2… 2019-02-2…
#>  2 12283 Meriones tam… taxon            1036        3530 2019-02-2… 2019-02-2…
#>  3 12284 Allactaga el… taxon            1036        3373 2019-02-2… 2019-02-2…
#>  4 12285 Marmota caud… taxon            1036        3517 2019-02-2… 2019-02-2…
#>  5 12286 Cricetulus m… taxon            1036        3448 2019-02-2… 2019-02-2…
#>  6 12287 Allactaga ma… taxon            1036        3374 2019-02-2… 2019-02-2…
#>  7 12288 Microtus soc… taxon            1036        3553 2019-02-2… 2019-02-2…
#>  8 12289 Apodemus ura… taxon            1036        3414 2019-02-2… 2019-02-2…
#>  9 12290 Marmota baib… taxon            1036        3515 2019-02-2… 2019-02-2…
#> 10 12291 Microtus gre… taxon            1036        3546 2019-02-2… 2019-02-2…
#> # … with 39 more rows, and 9 more variables: taxonomy.id <int>,
#> #   taxonomy.name <chr>, taxonomy.ncbi <int>, taxonomy.tsn <int>,
#> #   taxonomy.eol <int>, taxonomy.bold <int>, taxonomy.status <chr>,
#> #   taxonomy.created_at <chr>, taxonomy.updated_at <chr>
#> 
#> $edges
#> # A tibble: 79 x 20
#>       id node_from node_to date  direction type  method attr_id value geom 
#>    <int>     <int>   <int> <chr> <chr>     <chr> <chr>    <int> <int> <lgl>
#>  1 61724     12297   12282 2014… directed  para… field…      19  1879 NA   
#>  2 61725     12297   12283 2014… directed  para… field…      19     3 NA   
#>  3 61726     12298   12282 2014… directed  para… field…      19  1367 NA   
#>  4 61727     12299   12282 2014… directed  para… field…      19  1184 NA   
#>  5 61728     12299   12283 2014… directed  para… field…      19     7 NA   
#>  6 61729     12299   12284 2014… directed  para… field…      19     2 NA   
#>  7 61730     12300   12285 2014… directed  para… field…      19  1154 NA   
#>  8 61731     12301   12282 2014… directed  para… field…      19    18 NA   
#>  9 61732     12301   12283 2014… directed  para… field…      19   709 NA   
#> 10 61733     12301   12286 2014… directed  para… field…      19     4 NA   
#> # … with 69 more rows, and 10 more variables: public <lgl>, network_id <int>,
#> #   created_at <chr>, updated_at <chr>, attribute.id <int>,
#> #   attribute.name <chr>, attribute.description <chr>, attribute.unit <chr>,
#> #   attribute.created_at <chr>, attribute.updated_at <chr>
…
#> $network$created_at
#> [1] "2019-02-26T19:28:40.600Z"
#> 
#> $network$updated_at
#> [1] "2019-02-26T21:02:24.750Z"
#> 
#> $network$dataset_id
#> [1] 72
#> 
#> $network$user_id
#> [1] 2
#> 
#> 
#> $nodes
#> # A tibble: 29 x 16
#>       id original_name node_level network_id taxonomy_id created_at updated_at
#>    <int> <chr>         <chr>           <int>       <int> <chr>      <chr>     
#>  1 12331 Clethrionomy… taxon            1037        3441 2019-02-2… 2019-02-2…
#>  2 12332 Microtus oec… taxon            1037        3552 2019-02-2… 2019-02-2…
#>  3 12333 Clethrionomy… taxon            1037        3440 2019-02-2… 2019-02-2…
#>  4 12334 Tamias sibir… taxon            1037        3686 2019-02-2… 2019-02-2…
#>  5 12335 Sorex caecut… taxon            1037        3657 2019-02-2… 2019-02-2…
#>  6 12336 Alticola mac… taxon            1037        3381 2019-02-2… 2019-02-2…
#>  7 12337 Lemmus sibir… taxon            1037        3510 2019-02-2… 2019-02-2…
#>  8 12338 Sorex daphae… taxon            1037        3659 2019-02-2… 2019-02-2…
#>  9 12339 Sorex minuti… taxon            1037        3661 2019-02-2… 2019-02-2…
#> 10 12340 Sorex robora… taxon            1037        3663 2019-02-2… 2019-02-2…
#> # … with 19 more rows, and 9 more variables: taxonomy.id <int>,
#> #   taxonomy.name <chr>, taxonomy.ncbi <int>, taxonomy.tsn <int>,
#> #   taxonomy.eol <int>, taxonomy.bold <int>, taxonomy.status <chr>,
#> #   taxonomy.created_at <chr>, taxonomy.updated_at <chr>
#> 
#> $edges
#> # A tibble: 51 x 20
#>       id node_from node_to date  direction type  method attr_id value geom 
#>    <int>     <int>   <int> <chr> <chr>     <chr> <chr>    <int> <int> <lgl>
#>  1 61803     12345   12331 2014… directed  para… field…      19   153 NA   
#>  2 61804     12345   12332 2014… directed  para… field…      19    13 NA   
#>  3 61805     12345   12333 2014… directed  para… field…      19    49 NA   
#>  4 61806     12345   12334 2014… directed  para… field…      19     3 NA   
#>  5 61807     12345   12335 2014… directed  para… field…      19     2 NA   
#>  6 61808     12345   12336 2014… directed  para… field…      19     3 NA   
#>  7 61809     12345   12337 2014… directed  para… field…      19     7 NA   
#>  8 61810     12346   12331 2014… directed  para… field…      19    48 NA   
#>  9 61811     12346   12332 2014… directed  para… field…      19   112 NA   
#> 10 61812     12346   12333 2014… directed  para… field…      19    34 NA   
#> # … with 41 more rows, and 10 more variables: public <lgl>, network_id <int>,
#> #   created_at <chr>, updated_at <chr>, attribute.id <int>,
#> #   attribute.name <chr>, attribute.description <chr>, attribute.unit <chr>,
#> #   attribute.created_at <chr>, attribute.updated_at <chr>
…
