Query the datasets table. — search_datasets • rmangal
…
#>                                                                              
#> Data retrieval 100%   
#>                                                                              
#> Processing id: 173 	1/1  
#>                                                                              
#> Data retrieval 100%   
#>                                                                              
#> Processing id: 174 	1/1  
#>                                                                              
#> Data retrieval 100%   
#>                                                                              
#> Processing id: 175 	1/1  
#>                                                                              
all_datasets
#> # A tibble: 172 x 11
#>       id name  date  description public created_at updated_at ref_id user_id
#>    <int> <chr> <chr> <chr>       <lgl>  <chr>      <chr>       <int>   <int>
#>  1     2 howk… 1963… Insect act… TRUE   2019-02-2… 2019-02-2…      2       2
#>  2     7 lund… 2002… Pollnator … TRUE   2019-02-2… 2019-02-2…      7       2
#>  3     9 elbe… 1994… Flower-vis… TRUE   2019-02-2… 2019-02-2…      9       2
#>  4    14 john… 1956… Predation … TRUE   2019-02-2… 2019-02-2…     14       3
#>  5    15 have… 1984… Pelagic co… TRUE   2019-02-2… 2019-02-2…     15       3
#>  6    16 kemp… 1977… Food web f… TRUE   2019-02-2… 2019-02-2…     16       3
#>  7    17 brad… 1978… Food web o… TRUE   2019-02-2… 2019-02-2…     17       3
#>  8    18 patt… 1979… Food web o… TRUE   2019-02-2… 2019-02-2…     18       3
#>  9    19 clar… 1965… Food web o… TRUE   2019-02-2… 2019-02-2…     19       3
#> 10    20 van_… 1975… Food web o… TRUE   2019-02-2… 2019-02-2…     20       3
#> # … with 162 more rows, and 2 more variables: references <list>,
#> #   networks <list>
…
